{
	"status": "success",
	"message": {
		"total": 347,
		"per_page": 10,
		"current_page": 1,
		"last_page": 35,
		"data": [{
			"date": "2017-06-27",
			"num": "1311",
			"lottery_num": "74731",
			"lottery_date": "2017-06-27 21:51:00"
		}, {
			"date": "2017-06-27",
			"num": "1310",
			"lottery_num": "26879",
			"lottery_date": "2017-06-27 21:50:00"
		}, {
			"date": "2017-06-27",
			"num": "1309",
			"lottery_num": "58961",
			"lottery_date": "2017-06-27 21:49:00"
		}, {
			"date": "2017-06-27",
			"num": "1308",
			"lottery_num": "63138",
			"lottery_date": "2017-06-27 21:48:00"
		}, {
			"date": "2017-06-27",
			"num": "1307",
			"lottery_num": "28200",
			"lottery_date": "2017-06-27 21:47:00"
		}, {
			"date": "2017-06-27",
			"num": "1306",
			"lottery_num": "06108",
			"lottery_date": "2017-06-27 21:46:00"
		}, {
			"date": "2017-06-27",
			"num": "1305",
			"lottery_num": "28277",
			"lottery_date": "2017-06-27 21:45:00"
		}, {
			"date": "2017-06-27",
			"num": "1304",
			"lottery_num": "85437",
			"lottery_date": "2017-06-27 21:44:00"
		}, {
			"date": "2017-06-27",
			"num": "1303",
			"lottery_num": "36081",
			"lottery_date": "2017-06-27 21:43:00"
		}, {
			"date": "2017-06-27",
			"num": "1302",
			"lottery_num": "33016",
			"lottery_date": "2017-06-27 21:42:00"
		}]
	}
}