{
	"content": [{
		"numero": "201706271365",
		"gameCode": "TXFFC",
		"winNo": "37435",
		"winningTime": 1498574700000,
		"fragment": {
			"firstTwoNo": "37",
			"lastTwoNo": "35",
			"firstThreeNo": "374",
			"lastThreeNo": "435",
			"firstTwoPatternConfig": "非對子",
			"lastTwoPatternConfig": "非對子",
			"firstThreePatternConfig": "組六",
			"lastThreePatternConfig": "組六",
			"firstTwoAttributeConfig": "小大,小單,單大,單單",
			"lastTwoAttributeConfig": "小大,小單,單大,單單",
			"firstTwoSum": 10,
			"lastTwoSum": 8,
			"firstThreeSum": 14,
			"lastThreeSum": 12,
			"firstTwoSpan": 4,
			"lastTwoSpan": 2,
			"firstThreeSpan": 4,
			"lastThreeSpan": 2,
			"firstTwo012": "01",
			"lastTwo012": "02",
			"firstThree012": "011",
			"lastThree012": "102",
			"firstTwo012Quantity": "110",
			"lastTwo012Quantity": "101",
			"firstThree012Quantity": "120",
			"lastThree012Quantity": "111",
			"firstTwoPatternConfigVal": "0",
			"lastTwoPatternConfigVal": "0",
			"firstThreePatternConfigVal": "6",
			"lastThreePatternConfigVal": "6",
			"firstTwoAttributeConfigVal": "1_0,1_2,2_0,2_2",
			"lastTwoAttributeConfigVal": "1_0,1_2,2_0,2_2",
			"firstNo": "5",
			"secondNo": "3",
			"thirdNo": "4",
			"fourthNo": "7",
			"fifthNo": "3"
		}
	}, {
		"numero": "201706271364",
		"gameCode": "TXFFC",
		"winNo": "62428",
		"winningTime": 1498574640000,
		"fragment": {
			"firstTwoNo": "62",
			"lastTwoNo": "28",
			"firstThreeNo": "624",
			"lastThreeNo": "428",
			"firstTwoPatternConfig": "非對子",
			"lastTwoPatternConfig": "非對子",
			"firstThreePatternConfig": "組六",
			"lastThreePatternConfig": "組六",
			"firstTwoAttributeConfig": "大小,大雙,雙小,雙雙",
			"lastTwoAttributeConfig": "小大,小雙,雙大,雙雙",
			"firstTwoSum": 8,
			"lastTwoSum": 10,
			"firstThreeSum": 12,
			"lastThreeSum": 14,
			"firstTwoSpan": 4,
			"lastTwoSpan": 6,
			"firstThreeSpan": 4,
			"lastThreeSpan": 6,
			"firstTwo012": "02",
			"lastTwo012": "22",
			"firstThree012": "021",
			"lastThree012": "122",
			"firstTwo012Quantity": "101",
			"lastTwo012Quantity": "002",
			"firstThree012Quantity": "111",
			"lastThree012Quantity": "012",
			"firstTwoPatternConfigVal": "0",
			"lastTwoPatternConfigVal": "0",
			"firstThreePatternConfigVal": "6",
			"lastThreePatternConfigVal": "6",
			"firstTwoAttributeConfigVal": "0_1,0_3,3_1,3_3",
			"lastTwoAttributeConfigVal": "1_0,1_3,3_0,3_3",
			"firstNo": "8",
			"secondNo": "2",
			"thirdNo": "4",
			"fourthNo": "2",
			"fifthNo": "6"
		}
	}, {
		"numero": "201706271363",
		"gameCode": "TXFFC",
		"winNo": "84674",
		"winningTime": 1498574580000,
		"fragment": {
			"firstTwoNo": "84",
			"lastTwoNo": "74",
			"firstThreeNo": "846",
			"lastThreeNo": "674",
			"firstTwoPatternConfig": "非對子",
			"lastTwoPatternConfig": "非對子",
			"firstThreePatternConfig": "組六",
			"lastThreePatternConfig": "組六",
			"firstTwoAttributeConfig": "大小,大雙,雙小,雙雙",
			"lastTwoAttributeConfig": "大小,大雙,單小,單雙",
			"firstTwoSum": 12,
			"lastTwoSum": 11,
			"firstThreeSum": 18,
			"lastThreeSum": 17,
			"firstTwoSpan": 4,
			"lastTwoSpan": 3,
			"firstThreeSpan": 4,
			"lastThreeSpan": 3,
			"firstTwo012": "21",
			"lastTwo012": "11",
			"firstThree012": "210",
			"lastThree012": "011",
			"firstTwo012Quantity": "011",
			"lastTwo012Quantity": "020",
			"firstThree012Quantity": "111",
			"lastThree012Quantity": "120",
			"firstTwoPatternConfigVal": "0",
			"lastTwoPatternConfigVal": "0",
			"firstThreePatternConfigVal": "6",
			"lastThreePatternConfigVal": "6",
			"firstTwoAttributeConfigVal": "0_1,0_3,3_1,3_3",
			"lastTwoAttributeConfigVal": "0_1,0_3,2_1,2_3",
			"firstNo": "4",
			"secondNo": "7",
			"thirdNo": "6",
			"fourthNo": "4",
			"fifthNo": "8"
		}
	}, {
		"numero": "201706271362",
		"gameCode": "TXFFC",
		"winNo": "73096",
		"winningTime": 1498574520000,
		"fragment": {
			"firstTwoNo": "73",
			"lastTwoNo": "96",
			"firstThreeNo": "730",
			"lastThreeNo": "096",
			"firstTwoPatternConfig": "非對子",
			"lastTwoPatternConfig": "非對子",
			"firstThreePatternConfig": "組六",
			"lastThreePatternConfig": "組六",
			"firstTwoAttributeConfig": "大小,大單,單小,單單",
			"lastTwoAttributeConfig": "大大,大雙,單大,單雙",
			"firstTwoSum": 10,
			"lastTwoSum": 15,
			"firstThreeSum": 10,
			"lastThreeSum": 15,
			"firstTwoSpan": 4,
			"lastTwoSpan": 3,
			"firstThreeSpan": 7,
			"lastThreeSpan": 9,
			"firstTwo012": "10",
			"lastTwo012": "00",
			"firstThree012": "100",
			"lastThree012": "000",
			"firstTwo012Quantity": "110",
			"lastTwo012Quantity": "200",
			"firstThree012Quantity": "210",
			"lastThree012Quantity": "300",
			"firstTwoPatternConfigVal": "0",
			"lastTwoPatternConfigVal": "0",
			"firstThreePatternConfigVal": "6",
			"lastThreePatternConfigVal": "6",
			"firstTwoAttributeConfigVal": "0_1,0_2,2_1,2_2",
			"lastTwoAttributeConfigVal": "0_0,0_3,2_0,2_3",
			"firstNo": "6",
			"secondNo": "9",
			"thirdNo": "0",
			"fourthNo": "3",
			"fifthNo": "7"
		}
	}, {
		"numero": "201706271361",
		"gameCode": "TXFFC",
		"winNo": "04968",
		"winningTime": 1498574460000,
		"fragment": {
			"firstTwoNo": "04",
			"lastTwoNo": "68",
			"firstThreeNo": "049",
			"lastThreeNo": "968",
			"firstTwoPatternConfig": "非對子",
			"lastTwoPatternConfig": "非對子",
			"firstThreePatternConfig": "組六",
			"lastThreePatternConfig": "組六",
			"firstTwoAttributeConfig": "小小,小雙,雙小,雙雙",
			"lastTwoAttributeConfig": "大大,大雙,雙大,雙雙",
			"firstTwoSum": 4,
			"lastTwoSum": 14,
			"firstThreeSum": 13,
			"lastThreeSum": 23,
			"firstTwoSpan": 4,
			"lastTwoSpan": 2,
			"firstThreeSpan": 9,
			"lastThreeSpan": 3,
			"firstTwo012": "01",
			"lastTwo012": "02",
			"firstThree012": "010",
			"lastThree012": "002",
			"firstTwo012Quantity": "110",
			"lastTwo012Quantity": "101",
			"firstThree012Quantity": "210",
			"lastThree012Quantity": "201",
			"firstTwoPatternConfigVal": "0",
			"lastTwoPatternConfigVal": "0",
			"firstThreePatternConfigVal": "6",
			"lastThreePatternConfigVal": "6",
			"firstTwoAttributeConfigVal": "1_1,1_3,3_1,3_3",
			"lastTwoAttributeConfigVal": "0_0,0_3,3_0,3_3",
			"firstNo": "8",
			"secondNo": "6",
			"thirdNo": "9",
			"fourthNo": "4",
			"fifthNo": "0"
		}
	}, {
		"numero": "201706271360",
		"gameCode": "TXFFC",
		"winNo": "93239",
		"winningTime": 1498574400000,
		"fragment": {
			"firstTwoNo": "93",
			"lastTwoNo": "39",
			"firstThreeNo": "932",
			"lastThreeNo": "239",
			"firstTwoPatternConfig": "非對子",
			"lastTwoPatternConfig": "非對子",
			"firstThreePatternConfig": "組六",
			"lastThreePatternConfig": "組六",
			"firstTwoAttributeConfig": "大小,大單,單小,單單",
			"lastTwoAttributeConfig": "小大,小單,單大,單單",
			"firstTwoSum": 12,
			"lastTwoSum": 12,
			"firstThreeSum": 14,
			"lastThreeSum": 14,
			"firstTwoSpan": 6,
			"lastTwoSpan": 6,
			"firstThreeSpan": 7,
			"lastThreeSpan": 7,
			"firstTwo012": "00",
			"lastTwo012": "00",
			"firstThree012": "002",
			"lastThree012": "200",
			"firstTwo012Quantity": "200",
			"lastTwo012Quantity": "200",
			"firstThree012Quantity": "201",
			"lastThree012Quantity": "201",
			"firstTwoPatternConfigVal": "0",
			"lastTwoPatternConfigVal": "0",
			"firstThreePatternConfigVal": "6",
			"lastThreePatternConfigVal": "6",
			"firstTwoAttributeConfigVal": "0_1,0_2,2_1,2_2",
			"lastTwoAttributeConfigVal": "1_0,1_2,2_0,2_2",
			"firstNo": "9",
			"secondNo": "3",
			"thirdNo": "2",
			"fourthNo": "3",
			"fifthNo": "9"
		}
	}, {
		"numero": "201706271359",
		"gameCode": "TXFFC",
		"winNo": "03288",
		"winningTime": 1498574340000,
		"fragment": {
			"firstTwoNo": "03",
			"lastTwoNo": "88",
			"firstThreeNo": "032",
			"lastThreeNo": "288",
			"firstTwoPatternConfig": "非對子",
			"lastTwoPatternConfig": "對子",
			"firstThreePatternConfig": "組六",
			"lastThreePatternConfig": "組三",
			"firstTwoAttributeConfig": "小小,小單,雙小,雙單",
			"lastTwoAttributeConfig": "大大,大雙,雙大,雙雙",
			"firstTwoSum": 3,
			"lastTwoSum": 16,
			"firstThreeSum": 5,
			"lastThreeSum": 18,
			"firstTwoSpan": 3,
			"lastTwoSpan": 0,
			"firstThreeSpan": 3,
			"lastThreeSpan": 6,
			"firstTwo012": "00",
			"lastTwo012": "22",
			"firstThree012": "002",
			"lastThree012": "222",
			"firstTwo012Quantity": "200",
			"lastTwo012Quantity": "002",
			"firstThree012Quantity": "201",
			"lastThree012Quantity": "003",
			"firstTwoPatternConfigVal": "0",
			"lastTwoPatternConfigVal": "1",
			"firstThreePatternConfigVal": "6",
			"lastThreePatternConfigVal": "3",
			"firstTwoAttributeConfigVal": "1_1,1_2,3_1,3_2",
			"lastTwoAttributeConfigVal": "0_0,0_3,3_0,3_3",
			"firstNo": "8",
			"secondNo": "8",
			"thirdNo": "2",
			"fourthNo": "3",
			"fifthNo": "0"
		}
	}, {
		"numero": "201706271358",
		"gameCode": "TXFFC",
		"winNo": "68160",
		"winningTime": 1498574280000,
		"fragment": {
			"firstTwoNo": "68",
			"lastTwoNo": "60",
			"firstThreeNo": "681",
			"lastThreeNo": "160",
			"firstTwoPatternConfig": "非對子",
			"lastTwoPatternConfig": "非對子",
			"firstThreePatternConfig": "組六",
			"lastThreePatternConfig": "組六",
			"firstTwoAttributeConfig": "大大,大雙,雙大,雙雙",
			"lastTwoAttributeConfig": "大小,大雙,雙小,雙雙",
			"firstTwoSum": 14,
			"lastTwoSum": 6,
			"firstThreeSum": 15,
			"lastThreeSum": 7,
			"firstTwoSpan": 2,
			"lastTwoSpan": 6,
			"firstThreeSpan": 7,
			"lastThreeSpan": 6,
			"firstTwo012": "02",
			"lastTwo012": "00",
			"firstThree012": "021",
			"lastThree012": "100",
			"firstTwo012Quantity": "101",
			"lastTwo012Quantity": "200",
			"firstThree012Quantity": "111",
			"lastThree012Quantity": "210",
			"firstTwoPatternConfigVal": "0",
			"lastTwoPatternConfigVal": "0",
			"firstThreePatternConfigVal": "6",
			"lastThreePatternConfigVal": "6",
			"firstTwoAttributeConfigVal": "0_0,0_3,3_0,3_3",
			"lastTwoAttributeConfigVal": "0_1,0_3,3_1,3_3",
			"firstNo": "0",
			"secondNo": "6",
			"thirdNo": "1",
			"fourthNo": "8",
			"fifthNo": "6"
		}
	}, {
		"numero": "201706271357",
		"gameCode": "TXFFC",
		"winNo": "70012",
		"winningTime": 1498574220000,
		"fragment": {
			"firstTwoNo": "70",
			"lastTwoNo": "12",
			"firstThreeNo": "700",
			"lastThreeNo": "012",
			"firstTwoPatternConfig": "非對子",
			"lastTwoPatternConfig": "非對子",
			"firstThreePatternConfig": "組三",
			"lastThreePatternConfig": "組六",
			"firstTwoAttributeConfig": "大小,大雙,單小,單雙",
			"lastTwoAttributeConfig": "小小,小雙,單小,單雙",
			"firstTwoSum": 7,
			"lastTwoSum": 3,
			"firstThreeSum": 7,
			"lastThreeSum": 3,
			"firstTwoSpan": 7,
			"lastTwoSpan": 1,
			"firstThreeSpan": 7,
			"lastThreeSpan": 2,
			"firstTwo012": "10",
			"lastTwo012": "12",
			"firstThree012": "100",
			"lastThree012": "012",
			"firstTwo012Quantity": "110",
			"lastTwo012Quantity": "011",
			"firstThree012Quantity": "210",
			"lastThree012Quantity": "111",
			"firstTwoPatternConfigVal": "0",
			"lastTwoPatternConfigVal": "0",
			"firstThreePatternConfigVal": "3",
			"lastThreePatternConfigVal": "6",
			"firstTwoAttributeConfigVal": "0_1,0_3,2_1,2_3",
			"lastTwoAttributeConfigVal": "1_1,1_3,2_1,2_3",
			"firstNo": "2",
			"secondNo": "1",
			"thirdNo": "0",
			"fourthNo": "0",
			"fifthNo": "7"
		}
	}, {
		"numero": "201706271356",
		"gameCode": "TXFFC",
		"winNo": "67688",
		"winningTime": 1498574160000,
		"fragment": {
			"firstTwoNo": "67",
			"lastTwoNo": "88",
			"firstThreeNo": "676",
			"lastThreeNo": "688",
			"firstTwoPatternConfig": "非對子",
			"lastTwoPatternConfig": "對子",
			"firstThreePatternConfig": "組三",
			"lastThreePatternConfig": "組三",
			"firstTwoAttributeConfig": "大大,大單,雙大,雙單",
			"lastTwoAttributeConfig": "大大,大雙,雙大,雙雙",
			"firstTwoSum": 13,
			"lastTwoSum": 16,
			"firstThreeSum": 19,
			"lastThreeSum": 22,
			"firstTwoSpan": 1,
			"lastTwoSpan": 0,
			"firstThreeSpan": 1,
			"lastThreeSpan": 2,
			"firstTwo012": "01",
			"lastTwo012": "22",
			"firstThree012": "010",
			"lastThree012": "022",
			"firstTwo012Quantity": "110",
			"lastTwo012Quantity": "002",
			"firstThree012Quantity": "210",
			"lastThree012Quantity": "102",
			"firstTwoPatternConfigVal": "0",
			"lastTwoPatternConfigVal": "1",
			"firstThreePatternConfigVal": "3",
			"lastThreePatternConfigVal": "3",
			"firstTwoAttributeConfigVal": "0_0,0_2,3_0,3_2",
			"lastTwoAttributeConfigVal": "0_0,0_3,3_0,3_3",
			"firstNo": "8",
			"secondNo": "8",
			"thirdNo": "6",
			"fourthNo": "7",
			"fifthNo": "6"
		}
	}],
	"totalPages": 411829,
	"totalElements": 4118281,
	"firstPage": true,
	"lastPage": false,
	"last": false,
	"first": true,
	"numberOfElements": 10,
	"sort": null,
	"size": 10,
	"number": 0
}